fir.vcd
$date
   Sun Oct 15 10:54:07 2023
$end
$version
  2022.1
$end
$timescale
  1ps
$end
$scope module fir_tb $end
$var wire 1 ! awready $end
$var wire 1 " wready $end
$var reg 1 # awvalid $end
$var reg 12 $ awaddr [11:0] $end
$var reg 1 % wvalid $end
$var reg 32 & wdata [31:0] $end
$var wire 1 ' arready $end
$var reg 1 ( rready $end
$var reg 1 ) arvalid $end
$var reg 12 * araddr [11:0] $end
$var wire 1 + rvalid $end
$var wire 32 , rdata [31:0] $end
$var reg 1 - ss_tvalid $end
$var reg 32 . ss_tdata [31:0] $end
$var reg 1 / ss_tlast $end
$var wire 1 0 ss_tready $end
$var reg 1 1 sm_tready $end
$var wire 1 2 sm_tvalid $end
$var wire 32 3 sm_tdata [31:0] $end
$var wire 1 4 sm_tlast $end
$var reg 1 5 axis_clk $end
$var reg 1 6 axis_rst_n $end
$var wire 4 7 tap_WE [3:0] $end
$var wire 1 8 tap_EN $end
$var wire 32 9 tap_Di [31:0] $end
$var wire 12 : tap_A [11:0] $end
$var wire 32 ; tap_Do [31:0] $end
$var wire 4 < data_WE [3:0] $end
$var wire 1 = data_EN $end
$var wire 32 > data_Di [31:0] $end
$var wire 12 ? data_A [11:0] $end
$var wire 32 @ data_Do [31:0] $end
$var reg 1 A start_idle $end
$var reg 32 B data_length [31:0] $end
$var integer 32 C Din [31:0] $end
$var integer 32 D golden [31:0] $end
$var integer 32 E input_data [31:0] $end
$var integer 32 F golden_data [31:0] $end
$var integer 32 G m [31:0] $end
$var integer 32 H k [31:0] $end
$var reg 1 I pro_coef $end
$var reg 1 J error_coef $end
$var integer 32 K i [31:0] $end
$var reg 1 L error $end
$var integer 32 M timeout [31:0] $end
$scope module fir $end
$var wire 1 ! awready $end
$var wire 1 " wready $end
$var wire 1 N awvalid $end
$var wire 12 O awaddr [11:0] $end
$var wire 1 P wvalid $end
$var wire 32 Q wdata [31:0] $end
$var wire 1 ' arready $end
$var wire 1 R rready $end
$var wire 1 S arvalid $end
$var wire 12 T araddr [11:0] $end
$var wire 1 + rvalid $end
$var wire 32 , rdata [31:0] $end
$var wire 1 U ss_tvalid $end
$var wire 32 V ss_tdata [31:0] $end
$var wire 1 W ss_tlast $end
$var wire 1 0 ss_tready $end
$var wire 1 X sm_tready $end
$var wire 1 2 sm_tvalid $end
$var wire 32 3 sm_tdata [31:0] $end
$var wire 1 4 sm_tlast $end
$var wire 4 7 tap_WE [3:0] $end
$var wire 1 8 tap_EN $end
$var wire 32 9 tap_Di [31:0] $end
$var wire 12 : tap_A [11:0] $end
$var wire 32 ; tap_Do [31:0] $end
$var wire 4 < data_WE [3:0] $end
$var wire 1 = data_EN $end
$var wire 32 > data_Di [31:0] $end
$var wire 12 ? data_A [11:0] $end
$var wire 32 @ data_Do [31:0] $end
$var wire 1 Y axis_clk $end
$var wire 1 Z axis_rst_n $end
$var reg 4 [ \genblk1.state  [3:0] $end
$var reg 4 \ \genblk1.next_state  [3:0] $end
$var reg 1 ] \genblk1.ap_start  $end
$var reg 1 ^ \genblk1.ap_idle  $end
$var reg 1 _ \genblk1.ap_done  $end
$var reg 32 ` \genblk1.data_length  [31:0] $end
$var reg 10 a \genblk1.data_counter  [9:0] $end
$var reg 5 b \genblk1.fir_counter  [4:0] $end
$var reg 32 c \genblk1.data_temp_1  [31:0] $end
$var reg 32 d \genblk1.data_temp_2  [31:0] $end
$var reg 1 e \genblk1.read  $end
$var reg 32 f \genblk1.rdata_r  [31:0] $end
$var reg 32 g \genblk1.fir_data  [31:0] $end
$var wire 1 h \genblk1.arvalid_w  $end
$var wire 1 i \genblk1.rready_w  $end
$upscope $end
$scope module tap_RAM $end
$var wire 1 j CLK $end
$var wire 4 7 WE [3:0] $end
$var wire 1 8 EN $end
$var wire 32 9 Di [31:0] $end
$var wire 32 ; Do [31:0] $end
$var wire 12 : A [11:0] $end
$var reg 12 k r_A [11:0] $end
$upscope $end
$scope module data_RAM $end
$var wire 1 l CLK $end
$var wire 4 < WE [3:0] $end
$var wire 1 = EN $end
$var wire 32 > Di [31:0] $end
$var wire 32 @ Do [31:0] $end
$var wire 12 ? A [11:0] $end
$var reg 12 m r_A [11:0] $end
$upscope $end
$scope task config_write $end
$var reg 12 n addr [11:0] $end
$var reg 32 o data [31:0] $end
$upscope $end
$scope task config_read_check $end
$var reg 12 p addr [11:0] $end
$var reg 32 q exp_data [31:0] $end
$var reg 32 r mask [31:0] $end
$upscope $end
$scope task ss $end
$var reg 32 s in1 [31:0] $end
$upscope $end
$scope task sm $end
$var reg 32 t in2 [31:0] $end
$var reg 32 u pcnt [31:0] $end
$upscope $end
$upscope $end
$enddefinitions $end
#0
$dumpvars
1!
1"
1#
b0 $
1%
b100 &
1'
x(
x)
bx *
1+
bx ,
x-
bx .
x/
00
x1
02
b0 3
04
05
06
b1111 7
18
b100 9
b111111100000 :
bx ;
b1111 <
1=
bx >
b0 ?
bx @
0A
b1001011000 B
b11111111111111111011000111100000 C
b11111111111111111011000111100001 D
b1 E
b1 F
b1001011000 G
bx H
0I
0J
bx K
xL
b11000011010100000 M
1N
b0 O
1P
b100 Q
xR
xS
bx T
xU
bx V
xW
xX
0Y
0Z
b0 [
b0 \
0]
1^
0_
b0 `
b0 a
b0 b
b0 c
b0 d
0e
bx f
b0 g
xh
xi
0j
bx k
0l
bx m
bx n
bx o
b0 p
b100 q
b100 r
bx s
bx t
bx u
$end
#5000
0)
b0 *
b100 ,
15
b111111100000 :
bx ;
bx @
b11000011010011111 M
0S
b0 T
1Y
b0 [
b0 \
b0 `
b0 a
b0 b
b0 c
b0 d
0e
b100 f
b0 g
0h
1j
b111111100000 k
1l
b0 m
#10000
05
0Y
0j
0l
#15000
1(
1)
bx 3
15
16
bx >
b11000011010011110 M
1R
1S
1Y
1Z
b0 [
b0 `
b0 a
b0 b
bx c
b0 d
0e
bx g
1h
1i
1j
b111111100000 k
1l
b0 m
#20000
05
0Y
0j
0l
#25000
0#
0%
0(
0)
15
b0 7
b111111100000 :
1A
b11000011010011101 M
0N
0P
0R
0S
1Y
b0 [
b0 `
b0 a
b0 b
bx c
b0 d
0e
bx g
0h
0i
1j
b111111100000 k
1l
b0 m
b10000 n
b1001011000 o
#30000
05
0Y
0j
0l
#35000
1#
b10000 $
1%
b1001011000 &
15
b1111 7
b1001011000 9
b111111110000 :
b11000011010011100 M
1N
b10000 O
1P
b1001011000 Q
1Y
b0 [
b0 \
b0 `
b0 a
b0 b
bx c
b0 d
0e
b100 f
bx g
1j
b111111100000 k
1l
b0 m
#40000
05
0Y
0j
0l
#45000
15
bx ;
b0 H
b11000011010011011 M
1Y
b0 [
b0 \
b1001011000 `
b0 a
b0 b
bx c
b0 d
0e
b100 f
bx g
1j
b111111110000 k
1l
b0 m
b100000 n
b0 o
#50000
05
0Y
0j
0l
#55000
1#
b100000 $
1%
b0 &
15
b0 9
b0 :
b11000011010011010 M
b100000 O
b0 Q
1Y
b0 [
b0 \
b1001011000 `
b0 a
b0 b
bx c
b0 d
0e
b100 f
bx g
1j
b111111110000 k
1l
b0 m
#60000
05
0Y
0j
0l
#65000
15
b0 ;
b1 H
b11000011010011001 M
1Y
b0 [
b0 \
b1001011000 `
b0 a
b0 b
bx c
b0 d
0e
b100 f
bx g
1j
b0 k
1l
b0 m
b100100 n
b11111111111111111111111111110110 o
#70000
05
0Y
0j
0l
#75000
1#
b100100 $
1%
b11111111111111111111111111110110 &
15
b11111111111111111111111111110110 9
b100 :
b11000011010011000 M
b100100 O
b11111111111111111111111111110110 Q
1Y
b0 [
b0 \
b1001011000 `
b0 a
b0 b
bx c
b0 d
0e
b100 f
bx g
1j
b0 k
1l
b0 m
#80000
05
0Y
0j
0l
#85000
15
b11111111111111111111111111110110 ;
b10 H
b11000011010010111 M
1Y
b0 [
b0 \
b1001011000 `
b0 a
b0 b
bx c
b0 d
0e
b100 f
bx g
1j
b100 k
1l
b0 m
b101000 n
b11111111111111111111111111110111 o
#90000
05
0Y
0j
0l
#95000
1#
b101000 $
1%
b11111111111111111111111111110111 &
15
b11111111111111111111111111110111 9
b1000 :
b11000011010010110 M
b101000 O
b11111111111111111111111111110111 Q
1Y
b0 [
b0 \
b1001011000 `
b0 a
b0 b
bx c
b0 d
0e
b100 f
bx g
1j
b100 k
1l
b0 m
#100000
05
0Y
0j
0l
#105000
15
b11111111111111111111111111110111 ;
b11 H
b11000011010010101 M
1Y
b0 [
b0 \
b1001011000 `
b0 a
b0 b
bx c
b0 d
0e
b100 f
bx g
1j
b1000 k
1l
b0 m
b101100 n
b10111 o
#110000
05
0Y
0j
0l
#115000
1#
b101100 $
1%
b10111 &
15
b10111 9
b1100 :
b11000011010010100 M
b101100 O
b10111 Q
1Y
b0 [
b0 \
b1001011000 `
b0 a
b0 b
bx c
b0 d
0e
b100 f
bx g
1j
b1000 k
1l
b0 m
#120000
05
0Y
0j
0l
#125000
15
b10111 ;
b100 H
b11000011010010011 M
1Y
b0 [
b0 \
b1001011000 `
b0 a
b0 b
bx c
b0 d
0e
b100 f
bx g
1j
b1100 k
1l
b0 m
b110000 n
b111000 o
#130000
05
0Y
0j
0l
#135000
1#
b110000 $
1%
b111000 &
15
b111000 9
b10000 :
b11000011010010010 M
b110000 O
b111000 Q
1Y
b0 [
b0 \
b1001011000 `
b0 a
b0 b
bx c
b0 d
0e
b100 f
bx g
1j
b1100 k
1l
b0 m
#140000
05
0Y
0j
0l
#145000
15
b111000 ;
b101 H
b11000011010010001 M
1Y
b0 [
b0 \
b1001011000 `
b0 a
b0 b
bx c
b0 d
0e
b100 f
bx g
1j
b10000 k
1l
b0 m
b110100 n
b111111 o
#150000
05
0Y
0j
0l
#155000
1#
b110100 $
1%
b111111 &
15
b111111 9
b10100 :
b11000011010010000 M
b110100 O
b111111 Q
1Y
b0 [
b0 \
b1001011000 `
b0 a
b0 b
bx c
b0 d
0e
b100 f
bx g
1j
b10000 k
1l
b0 m
#160000
05
0Y
0j
0l
#165000
15
b111111 ;
b110 H
b11000011010001111 M
1Y
b0 [
b0 \
b1001011000 `
b0 a
b0 b
bx c
b0 d
0e
b100 f
bx g
1j
b10100 k
1l
b0 m
b111000 n
b111000 o
#170000
05
0Y
0j
0l
#175000
1#
b111000 $
1%
b111000 &
15
b111000 9
b11000 :
b11000011010001110 M
b111000 O
b111000 Q
1Y
b0 [
b0 \
b1001011000 `
b0 a
b0 b
bx c
b0 d
0e
b100 f
bx g
1j
b10100 k
1l
b0 m
#180000
05
0Y
0j
0l
#185000
15
b111000 ;
b111 H
b11000011010001101 M
1Y
b0 [
b0 \
b1001011000 `
b0 a
b0 b
bx c
b0 d
0e
b100 f
bx g
1j
b11000 k
1l
b0 m
b111100 n
b10111 o
#190000
05
0Y
0j
0l
#195000
1#
b111100 $
1%
b10111 &
15
b10111 9
b11100 :
b11000011010001100 M
b111100 O
b10111 Q
1Y
b0 [
b0 \
b1001011000 `
b0 a
b0 b
bx c
b0 d
0e
b100 f
bx g
1j
b11000 k
1l
b0 m
#200000
05
0Y
0j
0l
#205000
15
b10111 ;
b1000 H
b11000011010001011 M
1Y
b0 [
b0 \
b1001011000 `
b0 a
b0 b
bx c
b0 d
0e
b100 f
bx g
1j
b11100 k
1l
b0 m
b1000000 n
b11111111111111111111111111110111 o
#210000
05
0Y
0j
0l
#215000
1#
b1000000 $
1%
b11111111111111111111111111110111 &
15
b11111111111111111111111111110111 9
b100000 :
b11000011010001010 M
b1000000 O
b11111111111111111111111111110111 Q
1Y
b0 [
b0 \
b1001011000 `
b0 a
b0 b
bx c
b0 d
0e
b100 f
bx g
1j
b11100 k
1l
b0 m
#220000
05
0Y
0j
0l
#225000
15
b11111111111111111111111111110111 ;
b1001 H
b11000011010001001 M
1Y
b0 [
b0 \
b1001011000 `
b0 a
b0 b
bx c
b0 d
0e
b100 f
bx g
1j
b100000 k
1l
b0 m
b1000100 n
b11111111111111111111111111110110 o
#230000
05
0Y
0j
0l
#235000
1#
b1000100 $
1%
b11111111111111111111111111110110 &
15
b11111111111111111111111111110110 9
b100100 :
b11000011010001000 M
b1000100 O
b11111111111111111111111111110110 Q
1Y
b0 [
b0 \
b1001011000 `
b0 a
b0 b
bx c
b0 d
0e
b100 f
bx g
1j
b100000 k
1l
b0 m
#240000
05
0Y
0j
0l
#245000
15
b11111111111111111111111111110110 ;
b1010 H
b11000011010000111 M
1Y
b0 [
b0 \
b1001011000 `
b0 a
b0 b
bx c
b0 d
0e
b100 f
bx g
1j
b100100 k
1l
b0 m
b1001000 n
b0 o
#250000
05
0Y
0j
0l
#255000
1#
b1001000 $
1%
b0 &
15
b0 9
b101000 :
b11000011010000110 M
b1001000 O
b0 Q
1Y
b0 [
b0 \
b1001011000 `
b0 a
b0 b
bx c
b0 d
0e
b100 f
bx g
1j
b100100 k
1l
b0 m
#260000
05
0Y
0j
0l
#265000
0#
0%
15
b0 7
b111111100000 :
b0 ;
b1011 H
b11000011010000101 M
0N
0P
1Y
b0 [
b0 \
b1001011000 `
b0 a
b0 b
bx c
b0 d
0e
b100 f
bx g
1j
b101000 k
1l
b0 m
b10000 p
b1001011000 q
b11111111111111111111111111111111 r
#270000
05
0Y
0j
0l
#275000
0)
b10000 *
b1001011000 ,
15
b111111110000 :
bx ;
b11000011010000100 M
b10000 T
1Y
b0 [
b0 \
b1001011000 `
b0 a
b0 b
bx c
b0 d
0e
b1001011000 f
bx g
1j
b111111100000 k
1l
b0 m
#280000
05
0Y
0j
0l
#285000
1(
1)
15
bx ;
b11000011010000011 M
1R
1S
1Y
b0 [
b1001011000 `
b0 a
b0 b
bx c
b0 d
0e
bx g
1h
1i
1j
b111111110000 k
1l
b0 m
#290000
05
0Y
0j
0l
#295000
0(
0)
15
b0 H
b11000011010000010 M
0R
0S
1Y
b0 [
b1001011000 `
b0 a
b0 b
bx c
b0 d
0e
bx g
0h
0i
1j
b111111110000 k
1l
b0 m
#300000
05
0Y
0j
0l
#305000
15
b11000011010000001 M
1Y
b0 [
b1001011000 `
b0 a
b0 b
bx c
b0 d
0e
bx g
1j
b111111110000 k
1l
b0 m
b100000 p
b0 q
b11111111111111111111111111111111 r
#310000
05
0Y
0j
0l
#315000
0)
b100000 *
bx ,
15
b0 :
b11000011010000000 M
b100000 T
1Y
b0 [
b0 \
b1001011000 `
b0 a
b0 b
bx c
b0 d
0e
bx f
bx g
1j
b111111110000 k
1l
b0 m
#320000
05
0Y
0j
0l
#325000
1(
1)
b0 ,
15
b0 ;
b11000011001111111 M
1R
1S
1Y
b0 [
b0 \
b1001011000 `
b0 a
b0 b
bx c
b0 d
0e
b0 f
bx g
1h
1i
1j
b0 k
1l
b0 m
#330000
05
0Y
0j
0l
#335000
15
b1 H
b11000011001111110 M
1Y
b0 [
b1001011000 `
b0 a
b0 b
bx c
b0 d
0e
bx g
1j
b0 k
1l
b0 m
#340000
05
0Y
0j
0l
#345000
15
b11000011001111101 M
1Y
b0 [
b1001011000 `
b0 a
b0 b
bx c
b0 d
0e
bx g
1j
b0 k
1l
b0 m
b100100 p
b11111111111111111111111111110110 q
b11111111111111111111111111111111 r
#350000
05
0Y
0j
0l
#355000
0)
b100100 *
15
b100 :
b11000011001111100 M
0S
b100100 T
1Y
b0 [
b0 \
b1001011000 `
b0 a
b0 b
bx c
b0 d
0e
b0 f
bx g
0h
1j
b0 k
1l
b0 m
#360000
05
0Y
0j
0l
#365000
1(
1)
b11111111111111111111111111110110 ,
15
b11111111111111111111111111110110 ;
b11000011001111011 M
1S
1Y
b0 [
b0 \
b1001011000 `
b0 a
b0 b
bx c
b0 d
0e
b11111111111111111111111111110110 f
bx g
1h
1j
b100 k
1l
b0 m
#370000
05
0Y
0j
0l
#375000
15
b10 H
b11000011001111010 M
1Y
b0 [
b1001011000 `
b0 a
b0 b
bx c
b0 d
0e
bx g
1j
b100 k
1l
b0 m
#380000
05
0Y
0j
0l
#385000
15
b11000011001111001 M
1Y
b0 [
b1001011000 `
b0 a
b0 b
bx c
b0 d
0e
bx g
1j
b100 k
1l
b0 m
b101000 p
b11111111111111111111111111110111 q
b11111111111111111111111111111111 r
#390000
05
0Y
0j
0l
#395000
0)
b101000 *
15
b1000 :
b11000011001111000 M
0S
b101000 T
1Y
b0 [
b0 \
b1001011000 `
b0 a
b0 b
bx c
b0 d
0e
b11111111111111111111111111110110 f
bx g
0h
1j
b100 k
1l
b0 m
#400000
05
0Y
0j
0l
#405000
1(
1)
b11111111111111111111111111110111 ,
15
b11111111111111111111111111110111 ;
b11000011001110111 M
1S
1Y
b0 [
b0 \
b1001011000 `
b0 a
b0 b
bx c
b0 d
0e
b11111111111111111111111111110111 f
bx g
1h
1j
b1000 k
1l
b0 m
#410000
05
0Y
0j
0l
#415000
15
b11 H
b11000011001110110 M
1Y
b0 [
b1001011000 `
b0 a
b0 b
bx c
b0 d
0e
bx g
1j
b1000 k
1l
b0 m
#420000
05
0Y
0j
0l
#425000
15
b11000011001110101 M
1Y
b0 [
b1001011000 `
b0 a
b0 b
bx c
b0 d
0e
bx g
1j
b1000 k
1l
b0 m
b101100 p
b10111 q
b11111111111111111111111111111111 r
#430000
05
0Y
0j
0l
#435000
0)
b101100 *
15
b1100 :
b11000011001110100 M
0S
b101100 T
1Y
b0 [
b0 \
b1001011000 `
b0 a
b0 b
bx c
b0 d
0e
b11111111111111111111111111110111 f
bx g
0h
1j
b1000 k
1l
b0 m
#440000
05
0Y
0j
0l
#445000
1(
1)
b10111 ,
15
b10111 ;
b11000011001110011 M
1S
1Y
b0 [
b0 \
b1001011000 `
b0 a
b0 b
bx c
b0 d
0e
b10111 f
bx g
1h
1j
b1100 k
1l
b0 m
#450000
05
0Y
0j
0l
#455000
15
b100 H
b11000011001110010 M
1Y
b0 [
b1001011000 `
b0 a
b0 b
bx c
b0 d
0e
bx g
1j
b1100 k
1l
b0 m
#460000
05
0Y
0j
0l
#465000
15
b11000011001110001 M
1Y
b0 [
b1001011000 `
b0 a
b0 b
bx c
b0 d
0e
bx g
1j
b1100 k
1l
b0 m
b110000 p
b111000 q
b11111111111111111111111111111111 r
#470000
05
0Y
0j
0l
#475000
0)
b110000 *
15
b10000 :
b11000011001110000 M
0S
b110000 T
1Y
b0 [
b0 \
b1001011000 `
b0 a
b0 b
bx c
b0 d
0e
b10111 f
bx g
0h
1j
b1100 k
1l
b0 m
#480000
05
0Y
0j
0l
#485000
1(
1)
b111000 ,
15
b111000 ;
b11000011001101111 M
1S
1Y
b0 [
b0 \
b1001011000 `
b0 a
b0 b
bx c
b0 d
0e
b111000 f
bx g
1h
1j
b10000 k
1l
b0 m
#490000
05
0Y
0j
0l
#495000
15
b101 H
b11000011001101110 M
1Y
b0 [
b1001011000 `
b0 a
b0 b
bx c
b0 d
0e
bx g
1j
b10000 k
1l
b0 m
#500000
05
0Y
0j
0l
#505000
15
b11000011001101101 M
1Y
b0 [
b1001011000 `
b0 a
b0 b
bx c
b0 d
0e
bx g
1j
b10000 k
1l
b0 m
b110100 p
b111111 q
b11111111111111111111111111111111 r
#510000
05
0Y
0j
0l
#515000
0)
b110100 *
15
b10100 :
b11000011001101100 M
0S
b110100 T
1Y
b0 [
b0 \
b1001011000 `
b0 a
b0 b
bx c
b0 d
0e
b111000 f
bx g
0h
1j
b10000 k
1l
b0 m
#520000
05
0Y
0j
0l
#525000
1(
1)
b111111 ,
15
b111111 ;
b11000011001101011 M
1S
1Y
b0 [
b0 \
b1001011000 `
b0 a
b0 b
bx c
b0 d
0e
b111111 f
bx g
1h
1j
b10100 k
1l
b0 m
#530000
05
0Y
0j
0l
#535000
15
b110 H
b11000011001101010 M
1Y
b0 [
b1001011000 `
b0 a
b0 b
bx c
b0 d
0e
bx g
1j
b10100 k
1l
b0 m
#540000
05
0Y
0j
0l
#545000
15
b11000011001101001 M
1Y
b0 [
b1001011000 `
b0 a
b0 b
bx c
b0 d
0e
bx g
1j
b10100 k
1l
b0 m
b111000 p
b111000 q
b11111111111111111111111111111111 r
#550000
05
0Y
0j
0l
#555000
0)
b111000 *
15
b11000 :
b11000011001101000 M
0S
b111000 T
1Y
b0 [
b0 \
b1001011000 `
b0 a
b0 b
bx c
b0 d
0e
b111111 f
bx g
0h
1j
b10100 k
1l
b0 m
#560000
05
0Y
0j
0l
#565000
1(
1)
b111000 ,
15
b111000 ;
b11000011001100111 M
1S
1Y
b0 [
b0 \
b1001011000 `
b0 a
b0 b
bx c
b0 d
0e
b111000 f
bx g
1h
1j
b11000 k
1l
b0 m
#570000
05
0Y
0j
0l
#575000
15
b111 H
b11000011001100110 M
1Y
b0 [
b1001011000 `
b0 a
b0 b
bx c
b0 d
0e
bx g
1j
b11000 k
1l
b0 m
#580000
05
0Y
0j
0l
#585000
15
b11000011001100101 M
1Y
b0 [
b1001011000 `
b0 a
b0 b
bx c
b0 d
0e
bx g
1j
b11000 k
1l
b0 m
b111100 p
b10111 q
b11111111111111111111111111111111 r
#590000
05
0Y
0j
0l
#595000
0)
b111100 *
15
b11100 :
b11000011001100100 M
0S
b111100 T
1Y
b0 [
b0 \
b1001011000 `
b0 a
b0 b
bx c
b0 d
0e
b111000 f
bx g
0h
1j
b11000 k
1l
b0 m
#600000
05
0Y
0j
0l
#605000
1(
1)
b10111 ,
15
b10111 ;
b11000011001100011 M
1S
1Y
b0 [
b0 \
b1001011000 `
b0 a
b0 b
bx c
b0 d
0e
b10111 f
bx g
1h
1j
b11100 k
1l
b0 m
#610000
05
0Y
0j
0l
#615000
15
b1000 H
b11000011001100010 M
1Y
b0 [
b1001011000 `
b0 a
b0 b
bx c
b0 d
0e
bx g
1j
b11100 k
1l
b0 m
#620000
05
0Y
0j
0l
#625000
15
b11000011001100001 M
1Y
b0 [
b1001011000 `
b0 a
b0 b
bx c
b0 d
0e
bx g
1j
b11100 k
1l
b0 m
b1000000 p
b11111111111111111111111111110111 q
b11111111111111111111111111111111 r
#630000
05
0Y
0j
0l
#635000
0)
b1000000 *
15
b100000 :
b11000011001100000 M
0S
b1000000 T
1Y
b0 [
b0 \
b1001011000 `
b0 a
b0 b
bx c
b0 d
0e
b10111 f
bx g
0h
1j
b11100 k
1l
b0 m
#640000
05
0Y
0j
0l
#645000
1(
1)
b11111111111111111111111111110111 ,
15
b11111111111111111111111111110111 ;
b11000011001011111 M
1S
1Y
b0 [
b0 \
b1001011000 `
b0 a
b0 b
bx c
b0 d
0e
b11111111111111111111111111110111 f
bx g
1h
1j
b100000 k
1l
b0 m
#650000
05
0Y
0j
0l
#655000
15
b1001 H
b11000011001011110 M
1Y
b0 [
b1001011000 `
b0 a
b0 b
bx c
b0 d
0e
bx g
1j
b100000 k
1l
b0 m
#660000
05
0Y
0j
0l
#665000
15
b11000011001011101 M
1Y
b0 [
b1001011000 `
b0 a
b0 b
bx c
b0 d
0e
bx g
1j
b100000 k
1l
b0 m
b1000100 p
b11111111111111111111111111110110 q
b11111111111111111111111111111111 r
#670000
05
0Y
0j
0l
#675000
0)
b1000100 *
15
b100100 :
b11000011001011100 M
0S
b1000100 T
1Y
b0 [
b0 \
b1001011000 `
b0 a
b0 b
bx c
b0 d
0e
b11111111111111111111111111110111 f
bx g
0h
1j
b100000 k
1l
b0 m
#680000
05
0Y
0j
0l
#685000
1(
1)
b11111111111111111111111111110110 ,
15
b11111111111111111111111111110110 ;
b11000011001011011 M
1S
1Y
b0 [
b0 \
b1001011000 `
b0 a
b0 b
bx c
b0 d
0e
b11111111111111111111111111110110 f
bx g
1h
1j
b100100 k
1l
b0 m
#690000
05
0Y
0j
0l
#695000
15
b1010 H
b11000011001011010 M
1Y
b0 [
b1001011000 `
b0 a
b0 b
bx c
b0 d
0e
bx g
1j
b100100 k
1l
b0 m
#700000
05
0Y
0j
0l
#705000
15
b11000011001011001 M
1Y
b0 [
b1001011000 `
b0 a
b0 b
bx c
b0 d
0e
bx g
1j
b100100 k
1l
b0 m
b1001000 p
b0 q
b11111111111111111111111111111111 r
#710000
05
0Y
0j
0l
#715000
0)
b1001000 *
15
b101000 :
b11000011001011000 M
0S
b1001000 T
1Y
b0 [
b0 \
b1001011000 `
b0 a
b0 b
bx c
b0 d
0e
b11111111111111111111111111110110 f
bx g
0h
1j
b100100 k
1l
b0 m
#720000
05
0Y
0j
0l
#725000
1(
1)
b0 ,
15
b0 ;
b11000011001010111 M
1S
1Y
b0 [
b0 \
b1001011000 `
b0 a
b0 b
bx c
b0 d
0e
b0 f
bx g
1h
1j
b101000 k
1l
b0 m
#730000
05
0Y
0j
0l
#735000
0(
0)
15
b1011 H
b11000011001010110 M
0R
0S
1Y
b0 [
b1001011000 `
b0 a
b0 b
bx c
b0 d
0e
bx g
0h
0i
1j
b101000 k
1l
b0 m
#740000
05
0Y
0j
0l
#745000
15
b11000011001010101 M
1Y
b0 [
b1001011000 `
b0 a
b0 b
bx c
b0 d
0e
bx g
1j
b101000 k
1l
b0 m
b0 n
b1 o
#750000
05
0Y
0j
0l
#755000
1#
b0 $
1%
b1 &
15
b1111 7
b1 9
b111111100000 :
b11000011001010100 M
1N
b0 O
1P
b1 Q
1Y
b0 [
b1 \
b1001011000 `
b0 a
b0 b
bx c
b0 d
0e
b0 f
bx g
1j
b101000 k
1l
b0 m
#760000
05
0Y
0j
0l
#765000
0!
0"
1-
b1 .
0/
10
11
02
04
15
b0 7
18
b0 :
bx ;
b1 >
1I
b0 K
0L
b11000011001010011 M
1U
b1 V
0W
1X
1Y
b1 [
b1 \
1]
0^
b1001011000 `
b0 a
b0 b
bx c
b0 d
0e
b0 f
bx g
1j
b111111100000 k
1l
b0 m
b1 s
#770000
05
0Y
0j
0l
#775000
1-
b10 .
00
04
15
b100 :
b0 ;
b0 <
b10 >
b0 ?
b1 @
b1 K
b11000011001010010 M
b10 V
1Y
b1 [
b1 \
0]
b1001011000 `
b1 a
b0 b
b1 c
b0 d
0e
b0 f
bx g
1j
b0 k
1l
b0 m
b10 s
#780000
05
0Y
0j
0l
#785000
10
11
12
b0 3
04
15
b0 :
b11111111111111111111111111110110 ;
b1111 <
b10 >
b100 ?
b0 H
b11000011001010001 M
1Y
b1 [
b1 \
b1001011000 `
b1 a
b1 b
b10 c
b0 d
0e
b0 f
b0 g
1j
b100 k
1l
b0 m
b0 t
b0 u
#790000
05
0Y
0j
0l
#795000
1-
b11 .
00
02
b11111111111111111111111111110110 3
04
15
b1000 :
b0 ;
b0 <
b11 >
b0 ?
b10 @
b10 K
b11000011001010000 M
b11 V
1Y
b1 [
b1 \
b1001011000 `
b10 a
b0 b
b1 c
b11111111111111111111111111101100 d
0e
b0 f
b11111111111111111111111111110110 g
1j
b0 k
1l
b100 m
b11 s
#800000
05
0Y
0j
0l
#805000
00
11
12
04
15
b100 :
b11111111111111111111111111110111 ;
b0 <
b11 >
b100 ?
b1 @
b1 H
b11000011001001111 M
1Y
b1 [
b1 \
b1001011000 `
b10 a
b1 b
b11 c
b11111111111111111111111111101100 d
0e
b0 f
b11111111111111111111111111110110 g
1j
b1000 k
1l
b0 m
b11111111111111111111111111110110 t
b1 u
#810000
05
0Y
0j
0l
#815000
10
02
b11111111111111111111111111110111 3
04
15
b0 :
b11111111111111111111111111110110 ;
b1111 <
b11 >
b1000 ?
b10 @
b11000011001001110 M
1Y
b1 [
b1 \
b1001011000 `
b10 a
b10 b
b1 c
b11111111111111111111111111100101 d
0e
b0 f
b11111111111111111111111111110111 g
1j
b100 k
1l
b100 m
#820000
05
0Y
0j
0l
#825000
1-
b100 .
00
11
02
b11111111111111111111111111100011 3
04
15
b1100 :
b0 ;
b0 <
b100 >
b0 ?
b11 @
b10 H
b11 K
b11000011001001101 M
b100 V
1Y
b1 [
b1 \
b1001011000 `
b11 a
b0 b
b1 c
b11111111111111111111111111100101 d
0e
b0 f
b11111111111111111111111111100011 g
1j
b0 k
1l
b1000 m
b100 s
b11111111111111111111111111100011 t
b10 u
#830000
05
0Y
0j
0l
#835000
00
12
04
15
b1000 :
b10111 ;
b0 <
b100 >
b100 ?
b1 @
b11000011001001100 M
1Y
b1 [
b1 \
b1001011000 `
b11 a
b1 b
b100 c
b11111111111111111111111111100101 d
0e
b0 f
b11111111111111111111111111100011 g
1j
b1100 k
1l
b0 m
#840000
05
0Y
0j
0l
#845000
00
11
02
b10111 3
04
15
b100 :
b11111111111111111111111111110111 ;
b0 <
b100 >
b1000 ?
b10 @
b11 H
b11000011001001011 M
1Y
b1 [
b1 \
b1001011000 `
b11 a
b10 b
b1 c
b1011100 d
0e
b0 f
b10111 g
1j
b1000 k
1l
b100 m
b11111111111111111111111111100111 t
b11 u
#850000
05
0Y
0j
0l
#855000
10
02
b101 3
04
15
b0 :
b11111111111111111111111111110110 ;
b1111 <
b1100 ?
b11 @
b11000011001001010 M
1Y
b1 [
b1 \
b1001011000 `
b11 a
b11 b
b1 c
b1011100 d
0e
b0 f
b101 g
1j
b100 k
1l
b1000 m
#860000
05
0Y
0j
0l
#865000
1-
b101 .
00
02
b11111111111111111111111111100111 3
04
15
b10000 :
b0 ;
b0 <
b101 >
b0 ?
b100 @
b100 K
b11000011001001001 M
b101 V
1Y
b1 [
b1 \
b1001011000 `
b100 a
b0 b
b11 c
b11111111111111111111111111110110 d
0e
b0 f
b11111111111111111111111111100111 g
1j
b0 k
1l
b1100 m
b101 s
#870000
05
0Y
0j
0l
#875000
00
12
04
15
b1100 :
b111000 ;
b0 <
b101 >
b100 ?
b1 @
b11000011001001000 M
1Y
b1 [
b1 \
b1001011000 `
b100 a
b1 b
b101 c
b11111111111111111111111111110110 d
0e
b0 f
b11111111111111111111111111100111 g
1j
b10000 k
1l
b0 m
#880000
05
0Y
0j
0l
